<?xml version="1.0" encoding="UTF-8" standalone="no"?>
<svg
   xmlns:dc="http://purl.org/dc/elements/1.1/"
   xmlns:cc="http://creativecommons.org/ns#"
   xmlns:rdf="http://www.w3.org/1999/02/22-rdf-syntax-ns#"
   xmlns:svg="http://www.w3.org/2000/svg"
   xmlns="http://www.w3.org/2000/svg"
   xmlns:sodipodi="http://sodipodi.sourceforge.net/DTD/sodipodi-0.dtd"
   xmlns:inkscape="http://www.inkscape.org/namespaces/inkscape"
   width="673.22833"
   height="354.33072"
   viewBox="259 168 362 187"
   id="svg2"
   version="1.1"
   inkscape:version="0.91 r13725"
   sodipodi:docname="git_workflow.svg">
  <metadata
     id="metadata54">
    <rdf:RDF>
      <cc:Work
         rdf:about="">
        <dc:format>image/svg+xml</dc:format>
        <dc:type
           rdf:resource="http://purl.org/dc/dcmitype/StillImage" />
        <dc:title></dc:title>
      </cc:Work>
    </rdf:RDF>
  </metadata>
  <defs
     id="defs52" />
  <sodipodi:namedview
     pagecolor="#ffffff"
     bordercolor="#666666"
     borderopacity="1"
     objecttolerance="10"
     gridtolerance="10"
     guidetolerance="10"
     inkscape:pageopacity="0"
     inkscape:pageshadow="2"
     inkscape:window-width="1920"
     inkscape:window-height="1096"
     id="namedview50"
     showgrid="false"
     units="px"
     inkscape:snap-center="true"
     inkscape:snap-object-midpoints="true"
     inkscape:snap-bbox="true"
     inkscape:snap-bbox-midpoints="true"
     inkscape:snap-intersection-paths="true"
     inkscape:snap-page="true"
     inkscape:zoom="0.60454971"
     inkscape:cx="336.61417"
     inkscape:cy="177.16535"
     inkscape:window-x="-8"
     inkscape:window-y="-8"
     inkscape:window-maximized="1"
     inkscape:current-layer="g4182" />
  <g
     id="g4182"
     transform="translate(-1.7788698,5.3366094)">
    <g
       id="g4207"
       transform="matrix(1.167794,0,0,1.167794,-78.982235,-45.518608)">
      <g
         id="g4"
         transform="matrix(0.60036184,0,0,0.60036184,181.77655,100.95754)">
        <rect
           style="fill:#ffffff"
           x="500"
           y="200"
           width="120"
           height="54"
           id="rect6" />
        <rect
           style="fill:none;fill-opacity:0;stroke:#000000;stroke-width:2"
           x="500"
           y="200"
           width="120"
           height="54"
           id="rect8" />
        <text
           font-size="12.7998"
           style="font-style:normal;font-weight:normal;font-size:12.79979992px;font-family:sans-serif;text-anchor:middle;fill:#000000"
           x="560"
           y="230.89999"
           id="text10">
          <tspan
             x="560"
             y="230.89999"
             id="tspan12">2</tspan>
        </text>
      </g>
      <g
         id="g14"
         transform="matrix(0.60036184,0,0,0.60036184,181.77655,100.95754)">
        <rect
           style="fill:#ffffff"
           x="500"
           y="300"
           width="120"
           height="54"
           id="rect16" />
        <rect
           style="fill:none;fill-opacity:0;stroke:#000000;stroke-width:2"
           x="500"
           y="300"
           width="120"
           height="54"
           id="rect18" />
        <text
           font-size="12.7998"
           style="font-style:normal;font-weight:normal;font-size:12.79979992px;font-family:sans-serif;text-anchor:middle;fill:#000000"
           x="560"
           y="330.89999"
           id="text20">
          <tspan
             x="560"
             y="330.89999"
             id="tspan22">1</tspan>
        </text>
      </g>
      <g
         id="g24"
         transform="matrix(0.60036184,0,0,0.60036184,181.77655,100.95754)">
        <rect
           style="fill:#ffffff"
           x="260"
           y="200"
           width="120"
           height="54"
           id="rect26" />
        <rect
           style="fill:none;fill-opacity:0;stroke:#000000;stroke-width:2"
           x="260"
           y="200"
           width="120"
           height="54"
           id="rect28" />
        <text
           font-size="12.7998"
           style="font-style:normal;font-weight:normal;font-size:12.79979992px;font-family:sans-serif;text-anchor:middle;fill:#000000"
           x="320"
           y="230.89999"
           id="text30">
          <tspan
             x="320"
             y="230.89999"
             id="tspan32">master</tspan>
        </text>
      </g>
      <g
         id="g34"
         transform="matrix(0.60036184,0,0,0.60036184,181.77655,100.95754)">
        <line
           style="fill:none;fill-opacity:0;stroke:#000000;stroke-width:2"
           x1="381.00699"
           y1="227"
           x2="490.26401"
           y2="227"
           id="line36" />
        <polygon
           style="fill:#000000"
           points="487.764,232 490.264,227 487.764,222 497.764,227 "
           id="polygon38" />
        <polygon
           style="fill:none;fill-opacity:0;stroke:#000000;stroke-width:2"
           points="487.764,232 490.264,227 487.764,222 497.764,227 "
           id="polygon40" />
      </g>
      <text
         font-size="12.7998"
         style="font-style:normal;font-weight:normal;font-size:7.68451166px;font-family:sans-serif;text-anchor:start;fill:#000000"
         x="421.9213"
         y="245.04437"
         id="text42">
        <tspan
           x="421.9213"
           y="245.04437"
           id="tspan44">auto merge</tspan>
      </text>
      <text
         font-size="12.7998"
         style="font-style:normal;font-weight:normal;font-size:7.68451166px;font-family:sans-serif;text-anchor:start;fill:#000000"
         x="481.95746"
         y="209.02267"
         id="text46">
        <tspan
           x="481.95746"
           y="209.02267"
           id="tspan48">Iteration branch</tspan>
      </text>
    </g>
  </g>
</svg>
